length,width,thickness,surface_area,mass,compactness,hardness,shell_top_radius,water_content,carbohydrate_content,variety
14.54,13.3875,7.582903508,39.48,1451.1,0.95282,1.5653,4.5504,0.092175184,0.169,americana
22.59,16.8165,9.674444391,57.42,1744.05,0.95942,19.046,5.4477,0.059076494,0.166,cornuta
15.7,15.1965,8.696744552,44.97,1528.8,0.97713,7.874,4.6575,0.095988585,0.17,americana
20.53,15.5925,9.565426582,49.89,1623.3,0.96217,5.12,5.2893,0.049521325,0.174,americana
13.88,15.1965,9.433808147,43.38,1506.75,0.96998,7.406,4.5396,0.083459114,0.171,americana
12.5,12.0375,7.410269832,33.57,1370.25,0.90783,16.439,4.6971,0.054992029,0.168,avellana
14.13,12.222,7.182948645,35.43,1412.25,0.90178,13.694,4.8168,0.049594663,0.167,avellana
20.37,17.037,9.873537229,56.49,1710.45,0.98087,6.659,5.2911,0.08985014,0.166,cornuta
10.99,13.212,7.733342151,36.24,1389.15,0.95304,3.245,4.4649,0.093146114,0.171,americana
21.44,17.2125,10.38693891,56.82,1713.6,0.98362,7.724,5.3541,0.077291343,0.17,cornuta
17.17,14.337,8.648271243,42.27,1513.05,0.93819,10.76,4.7691,0.081691391,0.173,americana
20.37,17.37,10.26857603,55.77,1685.25,0.99726,17.003,5.2893,0.091148216,0.171,cornuta
14.95,13.617,8.04574684,38.67,1445.85,0.93951,17.555,4.7844,0.08552022,0.175,avellana
9.02,12.9555,7.572287267,33.69,1326.15,0.9724,5.807,4.2327,0.099610547,0.166,cornuta
22.72,16.6185,9.882405112,56.43,1710.45,0.97966,8.711,5.4477,0.063331451,0.168,cornuta
12.2,12.1185,7.042532981,33.54,1369.2,0.90926,8.996,4.5009,0.053825341,0.174,avellana
15.54,14.9985,9.318823312,44.64,1529.85,0.96921,2.054,4.4604,0.054866503,0.169,americana
25.13,16.9785,9.931461322,60.48,1788.15,0.96085,4.73,5.5665,0.05098881,0.175,avellana
22.27,16.9605,9.618423999,56.67,1704.15,0.99088,9.917,5.3694,0.09497878,0.171,cornuta
10.11,12.573,7.7227968,33.42,1342.95,0.94138,18.164,4.5441,0.090476426,0.169,avellana
10.09,12.645,7.871792902,33.54,1335.6,0.9548,11.153,4.3452,0.084173384,0.174,avellana
18.26,15.588,9.500715272,48.6,1603.35,0.96074,7.469,4.9743,0.067077366,0.173,americana
16.62,15.3855,8.593053585,46.14,1550.85,0.97427,4.997,4.6998,0.085547936,0.174,americana
22.48,16.8975,9.483580139,56.85,1724.1,0.97119,9.104,5.5332,0.060790747,0.174,cornuta
12.04,13.32,8.01077206,37.11,1414.35,0.94237,10.757,4.5009,0.06680396,0.169,avellana
13.95,13.302,7.524186547,38.22,1435.35,0.94204,6.512,4.3821,0.077949525,0.172,americana
12.19,13.4505,8.168414576,37.14,1411.2,0.94699,15.416,4.5405,0.088566207,0.173,avellana
8.99,12.5415,7.272806484,31.77,1303.05,0.95128,13.925,4.3146,0.064562308,0.173,avellana
18.84,15.7725,9.255819473,49.32,1601.25,0.9768,4.907,4.9797,0.068389071,0.168,americana
11.38,14.4045,8.646675359,39.48,1422.75,0.99099,6.383,4.3047,0.093107643,0.175,americana
15.85,14.724,8.622661318,43.29,1512.0,0.96261,10.925,4.6296,0.050384315,0.173,americana
11.75,12.3975,7.368073055,34.08,1370.25,0.92202,11.144,4.7367,0.091176416,0.169,avellana
14.82,14.013,7.845019517,41.22,1475.25,0.96184,7.796,4.3425,0.060124494,0.168,americana
11.37,13.4145,8.149840497,36.57,1386.0,0.96613,9.893,4.383,0.099551311,0.169,avellana
25.49,16.515,9.346656718,56.94,1749.3,0.9449,10.073,5.8482,0.086056801,0.167,cornuta
23.84,16.974,9.809705849,58.71,1757.7,0.96569,3.416,5.6457,0.087792388,0.17,cornuta
17.76,15.336,9.104888135,46.68,1563.45,0.97053,13.916,5.2623,0.084599561,0.171,cornuta
17.62,15.2415,8.850863182,48.51,1614.9,0.94468,11.858,5.1327,0.09961506,0.175,cornuta
19.98,15.678,8.775622037,50.52,1645.35,0.94853,13.025,5.2893,0.067703751,0.171,cornuta
24.16,16.7355,9.920694117,57.18,1727.25,0.97394,5.744,5.5467,0.086299763,0.169,cornuta
12.24,13.743,7.933225949,38.37,1420.65,0.96646,15.449,4.4622,0.083210518,0.167,avellana
17.63,14.904,8.672393969,45.78,1558.2,0.9581,5.663,4.698,0.074236518,0.168,americana
13.86,14.904,8.556407624,43.14,1492.05,0.98461,6.386,4.4604,0.056028863,0.166,americana
13.95,13.617,7.875526697,39.06,1444.8,0.95051,9.119,4.3425,0.093168773,0.168,americana
18.5,16.047,9.771728213,51.36,1632.75,0.97812,7.574,5.1714,0.083617763,0.168,cornuta
24.93,17.3565,10.43195978,60.09,1774.5,0.96921,8.189,5.688,0.092062683,0.175,cornuta
15.79,15.579,9.536308396,45.33,1526.7,0.98846,8.384,4.662,0.09054876,0.172,americana
13.25,12.1545,7.047165688,33.06,1365.0,0.90079,19.205,4.6467,0.074932148,0.168,avellana
25.79,17.163,10.27543853,62.13,1809.15,0.96393,12.353,5.8059,0.087908341,0.168,cornuta
21.07,16.9605,9.636225702,55.35,1692.6,0.98131,5.705,5.2146,0.088521481,0.166,cornuta
21.11,17.4105,9.680494488,56.25,1698.9,0.98989,11.564,5.3928,0.050905478,0.17,cornuta
14.17,12.7665,8.000060327,36.45,1412.25,0.92873,9.914,4.8042,0.055338534,0.171,avellana
26.75,16.9335,9.867179391,59.82,1776.6,0.96272,8.756,5.895,0.093770619,0.175,cornuta
19.2,14.5395,8.751909295,46.71,1590.75,0.93797,6.92,5.2911,0.073351805,0.166,cornuta
10.9,12.2175,7.47236689,33.72,1365.0,0.91949,9.563,4.5792,0.085288677,0.175,avellana
11.4,12.5775,6.98960415,33.69,1352.4,0.93621,11.975,4.5027,0.058464919,0.168,avellana
15.69,14.1885,8.107844387,43.11,1510.95,0.95986,3.392,4.77,0.060149762,0.171,americana
18.75,15.6015,9.032148381,49.59,1610.7,0.97053,15.596,5.292,0.083022784,0.171,cornuta
15.41,13.8285,8.078300047,39.96,1463.7,0.94743,20.105,4.896,0.051079693,0.172,avellana
17.57,15.1695,9.098228491,46.47,1568.7,0.95964,9.236,4.7052,0.097574124,0.17,americana
15.2,14.256,8.813629368,42.33,1497.3,0.95942,7.064,4.6971,0.068733821,0.172,americana
24.45,16.3755,9.680966622,56.82,1731.45,0.9625,14.192,5.7258,0.066741898,0.171,cornuta
15.04,14.3955,8.420361285,42.99,1499.4,0.97141,8.984,4.7016,0.062469508,0.168,americana
16.78,14.661,8.36394995,44.58,1540.35,0.95436,5.387,4.8159,0.052942112,0.175,americana
16.09,14.211,8.16274649,42.03,1500.45,0.94875,5.651,4.6188,0.051662482,0.172,americana
19.27,15.471,9.481646102,50.31,1640.1,0.95018,13.76,5.2155,0.069899161,0.174,cornuta
12.79,12.0915,7.424022663,33.63,1378.65,0.89837,17.507,4.7475,0.0900969,0.169,avellana
14.79,14.202,8.864132181,41.34,1476.3,0.96349,8.408,4.3848,0.095321917,0.173,americana
17.91,16.605,9.378957326,52.65,1644.3,0.98901,15.098,5.0949,0.081027481,0.173,cornuta
12.63,12.78,7.459334099,35.49,1389.15,0.93456,14.585,4.7763,0.08523694,0.172,avellana
11.19,15.2235,8.903407327,41.97,1452.15,1.01013,14.702,4.3029,0.074858267,0.172,americana
17.09,15.6825,9.387166599,48.36,1575.0,0.99,5.81,4.8987,0.060595977,0.169,americana
14.39,14.3955,8.555908975,41.67,1472.1,0.9768,10.958,4.2642,0.054843719,0.166,americana
20.84,16.938,9.584200611,56.64,1707.3,0.98659,3.947,5.4981,0.093161343,0.17,cornuta
11.32,13.2885,8.058252986,35.61,1367.1,0.96745,9.791,4.6188,0.088249763,0.174,avellana
12.05,15.597,9.16510172,44.1,1492.05,1.00683,4.301,4.1841,0.061291127,0.17,americana
23.03,17.0595,9.598926987,58.14,1755.6,0.95876,10.034,5.3685,0.069073925,0.172,cornuta
11.6,14.067,8.055048639,38.4,1414.35,0.9746,13.619,4.4226,0.07973655,0.175,avellana
25.73,18.1485,10.21078389,63.54,1807.05,0.98879,16.34,5.6079,0.07773461,0.171,cornuta
25.81,17.0325,10.26511827,60.3,1783.95,0.96206,4.865,5.8041,0.081241553,0.169,cornuta
13.04,12.1275,7.145492718,34.47,1388.1,0.90893,15.164,4.779,0.091242032,0.174,avellana
13.51,14.9985,8.663377558,43.77,1499.4,0.98923,11.555,4.3029,0.076073038,0.175,americana
20.17,15.687,8.794082528,50.46,1628.55,0.96646,11.012,5.2569,0.096695317,0.168,cornuta
18.84,14.706,8.917509067,46.14,1564.5,0.95766,12.386,5.2155,0.090835413,0.166,cornuta
12.62,13.617,7.583930734,38.34,1424.85,0.95876,2.528,4.3038,0.053534027,0.168,americana
12.4,13.0905,7.397680209,36.57,1402.8,0.94369,13.571,4.6422,0.07333732,0.173,avellana
14.1,13.0995,7.846757515,37.86,1435.35,0.93291,8.918,4.7079,0.09668055,0.171,avellana
12.24,13.3515,7.675903081,36.66,1398.6,0.95172,15.407,4.6989,0.05475062,0.17,avellana
14.51,12.9555,8.032617966,37.62,1435.35,0.92675,8.246,4.9419,0.054749949,0.166,avellana
18.32,14.787,8.489029543,46.8,1586.55,0.9438,7.175,5.1768,0.095770255,0.167,cornuta
14.77,15.5925,8.681918227,46.14,1539.3,0.9889,9.8,4.8951,0.063525818,0.169,cornuta
17.89,14.6025,8.820823488,45.03,1549.8,0.95227,4.373,4.5009,0.081639629,0.166,americana
11.8,12.411,7.2185842,34.44,1370.25,0.93203,16.628,4.5018,0.057950369,0.174,avellana
17.14,14.589,9.096316877,45.78,1559.25,0.95656,12.629,4.7826,0.07308836,0.166,americana
13.76,14.1975,7.960626109,41.4,1474.2,0.96734,3.68,4.4649,0.099465173,0.173,americana
21.53,16.533,9.259112981,55.65,1703.1,0.97515,4.214,5.3046,0.092794825,0.17,cornuta
12.26,13.7205,8.256022097,38.16,1424.85,0.95546,11.306,4.4226,0.057657046,0.175,americana
13.89,13.833,8.156700721,40.02,1464.75,0.9482,16.985,4.7763,0.086227161,0.173,avellana
12.43,13.383,8.245929186,36.9,1400.7,0.95524,15.911,4.5567,0.062689118,0.17,avellana
21.52,17.127,10.0469195,56.55,1697.85,0.99616,7.529,5.58,0.061568937,0.17,cornuta
18.32,16.5735,9.918182874,51.24,1614.9,0.99869,7.868,4.9356,0.079340232,0.171,americana
21.13,17.514,9.837131822,58.38,1732.5,0.98835,11.924,5.4081,0.100874777,0.175,cornuta
10.91,12.618,7.431551059,33.81,1350.3,0.94193,10.955,4.5009,0.080528193,0.167,avellana
23.15,17.829,9.985067802,60.72,1775.55,0.97867,16.703,5.5692,0.05512268,0.175,cornuta
9.84,14.1075,8.791853663,38.01,1398.6,0.98747,5.9,4.2705,0.054888833,0.167,avellana
13.51,14.211,8.758743881,40.5,1454.25,0.97372,5.747,4.6584,0.07584731,0.173,americana
13.17,11.916,7.475322687,32.37,1357.65,0.89177,15.386,4.6746,0.060652211,0.174,avellana
13.33,13.356,7.875741111,37.65,1424.85,0.94138,12.257,4.6584,0.09936123,0.168,cornuta
13.2,14.076,8.283940511,40.11,1446.9,0.97339,13.01,4.5819,0.064528794,0.167,avellana
11.39,14.0355,7.821242765,38.64,1417.5,0.97669,6.056,4.1463,0.068473185,0.166,americana
10.9,12.4875,7.691875707,34.23,1359.75,0.9416,13.871,4.3425,0.058176667,0.167,avellana
17.18,15.8625,9.116173069,49.23,1601.25,0.97526,11.651,5.0562,0.05892231,0.174,cornuta
13.19,13.0365,7.864724394,37.32,1426.95,0.93082,13.772,4.743,0.055693119,0.171,avellana
12.36,13.5765,7.797966216,37.38,1408.05,0.95766,13.961,4.6323,0.060836436,0.167,avellana
11.76,12.2355,7.723538573,34.29,1378.65,0.91685,5.663,4.6188,0.085550399,0.175,avellana
18.33,15.3945,9.469039277,48.57,1591.8,0.97339,1.709,4.7763,0.098623512,0.171,americana
13.95,13.815,8.106772596,39.66,1453.2,0.9548,11.471,4.5792,0.059650127,0.167,americana
10.89,12.6945,7.284060934,33.69,1346.1,0.94534,21.572,4.4613,0.077405579,0.166,avellana
20.51,17.5365,10.56325069,56.88,1701.0,0.99847,12.002,5.175,0.085732974,0.173,cornuta
15.85,14.175,8.861027239,41.82,1487.85,0.96008,5.372,4.5108,0.100123148,0.172,americana
13.94,12.3525,7.786717989,36.39,1441.65,0.88891,13.475,4.698,0.090113778,0.174,avellana
12.91,15.0165,8.951663343,42.87,1479.45,0.9955,7.097,4.3425,0.090686201,0.174,americana
16.58,16.029,9.388903732,48.42,1573.95,0.99374,3.065,4.6575,0.074340928,0.169,americana
17.01,15.2685,9.476821833,46.08,1549.8,0.97471,3.101,4.6188,0.055867923,0.168,americana
11.83,13.9095,8.194543762,38.1,1408.05,0.97614,24.368,4.5,0.077401875,0.169,avellana
11.05,13.2345,7.401979293,36.3,1380.75,0.96723,5.603,4.5504,0.069035529,0.175,avellana
17.12,14.976,9.243487986,45.15,1541.4,0.96569,5.387,4.824,0.072141562,0.17,americana
23.66,17.1045,9.807424291,58.53,1754.55,0.9658,7.886,5.5665,0.064568194,0.174,cornuta
20.59,16.0335,9.450828688,54.42,1692.6,0.96492,9.857,5.4099,0.070337865,0.167,cornuta
16.74,15.453,8.644009428,47.34,1565.55,0.98153,15.779,4.6224,0.055197654,0.171,americana
16.56,14.796,8.623290613,44.4,1524.6,0.97053,8.336,4.7781,0.069512197,0.169,americana
22.45,17.1675,10.45596871,57.45,1727.25,0.9779,8.252,5.5665,0.058838096,0.174,cornuta
18.45,15.2775,9.064148357,48.48,1609.65,0.95084,11.798,5.2155,0.081728037,0.168,cornuta
13.57,13.0185,8.018706158,36.63,1414.35,0.92983,3.983,4.6602,0.080050116,0.175,avellana
13.63,12.0735,6.860361326,34.68,1397.55,0.90178,11.186,4.6638,0.080967546,0.171,avellana
